/Users/everton/Documents/_dev/desafio/desafio-digx/src/main/java/br/com/desafio/digx/casas/populares/stubs/PessoaStub.java
/Users/everton/Documents/_dev/desafio/desafio-digx/src/main/java/br/com/desafio/digx/casas/populares/CasasPropulares.java
/Users/everton/Documents/_dev/desafio/desafio-digx/src/main/java/br/com/desafio/digx/casas/populares/dto/Mensagem.java
/Users/everton/Documents/_dev/desafio/desafio-digx/src/main/java/br/com/desafio/digx/casas/populares/stubs/FamiliaStub.java
/Users/everton/Documents/_dev/desafio/desafio-digx/src/main/java/br/com/desafio/digx/casas/populares/businnes/ValidadorBusinnes.java
/Users/everton/Documents/_dev/desafio/desafio-digx/src/main/java/br/com/desafio/digx/casas/populares/validadores/ValidarDependentes.java
/Users/everton/Documents/_dev/desafio/desafio-digx/src/main/java/br/com/desafio/digx/casas/populares/BasicApplication.java
/Users/everton/Documents/_dev/desafio/desafio-digx/src/main/java/br/com/desafio/digx/casas/populares/dto/Familia.java
/Users/everton/Documents/_dev/desafio/desafio-digx/src/main/java/br/com/desafio/digx/casas/populares/dto/Pessoa.java
/Users/everton/Documents/_dev/desafio/desafio-digx/src/main/java/br/com/desafio/digx/casas/populares/validadores/ValidadorGenerico.java
/Users/everton/Documents/_dev/desafio/desafio-digx/src/main/java/br/com/desafio/digx/casas/populares/controller/CalculadorController.java
/Users/everton/Documents/_dev/desafio/desafio-digx/src/main/java/br/com/desafio/digx/casas/populares/validadores/ValidarRenda.java
